1. Jaanika Kargu,47504210029
2. Triin Saska,48002216710
3. Jaanek Jänes,37208039821
4. Miina Soosaar,48304210232
5. Siiri Jõemaa,47809240230
6. Harald Kants,38412142332
7. Anni Randoja,48001312365
8. Riina Vihman,48908314501
9. Margus Pai,36803180343
10. Mirjam Tamm,47608053201
11. Loore Valper,48103270934
12. Jaanus Kask,37712044502
13. Urve Siimsaar,48806210034
14. Mari Peet,48607300208